# General Objects
txtbx_username=.//*[@id='username']
txtbx_password=.//*[@id='password']
btn_signin=.//*[@id='loginForm']/div[2]/button


# Login Page Object
# txtbx_UserName=.//*[@id='log']
txtbx_Password=.//*[@id='pwd']
btn_LogIn=.//*[@id='login']
